{
  "results": [
    {
      "vote_count": 1065,
      "id": 166428,
      "video": false,
      "vote_average": 7.8,
      "title": "How to Train Your Dragon: The Hidden World",
      "popularity": 378.308,
      "poster_path": "\/xvx4Yhf0DVH8G4LzNISpMfFBDy2.jpg",
      "original_language": "en",
      "original_title": "How to Train Your Dragon: The Hidden World",
      "genre_ids": [
        16,
        10751,
        12
      ],
      "backdrop_path": "\/h3KN24PrOheHVYs9ypuOIdFBEpX.jpg",
      "adult": false,
      "overview": "As Hiccup fulfills his dream of creating a peaceful dragon utopia, Toothless’ discovery of an untamed, elusive mate draws the Night Fury away. When danger mounts at home and Hiccup’s reign as village chief is tested, both dragon and rider must make impossible decisions to save their kind.",
      "release_date": "2019-01-03"
    },
    {
      "vote_count": 10,
      "id": 429471,
      "video": false,
      "vote_average": 5.6,
      "title": "Captive State",
      "popularity": 103.174,
      "poster_path": "\/wB24P3QGGoAkEyBzTEb5s4lFY7N.jpg",
      "original_language": "en",
      "original_title": "Captive State",
      "genre_ids": [
        53,
        878
      ],
      "backdrop_path": "\/6IZ84KFhNpy6htsJmwFVuK30pyp.jpg",
      "adult": false,
      "overview": "Nearly a decade after occupation by an extraterrestrial force, the lives of a Chicago neighborhood on both sides of the conflict are explored.",
      "release_date": "2019-03-15"
    },
    {
      "vote_count": 6304,
      "id": 424694,
      "video": false,
      "vote_average": 8.1,
      "title": "Bohemian Rhapsody",
      "popularity": 83.513,
      "poster_path": "\/lHu1wtNaczFPGFDTrjCSzeLPTKN.jpg",
      "original_language": "en",
      "original_title": "Bohemian Rhapsody",
      "genre_ids": [
        18,
        10402
      ],
      "backdrop_path": "\/xcaSYLBhmDzJ6P14bcKe0KTh3QV.jpg",
      "adult": false,
      "overview": "Singer Freddie Mercury, guitarist Brian May, drummer Roger Taylor and bass guitarist John Deacon take the music world by storm when they form the rock 'n' roll band Queen in 1970. Hit songs become instant classics. When Mercury's increasingly wild lifestyle starts to spiral out of control, Queen soon faces its greatest challenge yet – finding a way to keep the band together amid the success and excess.",
      "release_date": "2018-10-24"
    },
    {
      "vote_count": 86,
      "id": 445629,
      "video": false,
      "vote_average": 6.2,
      "title": "Fighting with My Family",
      "popularity": 69.215,
      "poster_path": "\/3TZCBAdKQiz0cGKGEjZiyZUA01O.jpg",
      "original_language": "en",
      "original_title": "Fighting with My Family",
      "genre_ids": [
        35,
        18
      ],
      "backdrop_path": "\/mYKP6qcDUimVMAHQWLOuDHjO19S.jpg",
      "adult": false,
      "overview": "Born into a tight-knit wrestling family, Paige and her brother Zak are ecstatic when they get the once-in-a-lifetime opportunity to try out for the WWE. But when only Paige earns a spot in the competitive training program, she must leave her loved ones behind and face this new cutthroat world alone. Paige's journey pushes her to dig deep and ultimately prove to the world that what makes her different is the very thing that can make her a star.",
      "release_date": "2019-02-14"
    },
    {
      "vote_count": 1395,
      "id": 424783,
      "video": false,
      "vote_average": 6.5,
      "title": "Bumblebee",
      "popularity": 66.809,
      "poster_path": "\/fw02ONlDhrYjTSZV8XO6hhU3ds3.jpg",
      "original_language": "en",
      "original_title": "Bumblebee",
      "genre_ids": [
        28,
        12,
        878
      ],
      "backdrop_path": "\/hMANgfPHR1tRObNp2oPiOi9mMlz.jpg",
      "adult": false,
      "overview": "On the run in the year 1987, Bumblebee finds refuge in a junkyard in a small Californian beach town. Charlie, on the cusp of turning 18 and trying to find her place in the world, discovers Bumblebee, battle-scarred and broken.  When Charlie revives him, she quickly learns this is no ordinary yellow VW bug.",
      "release_date": "2018-12-15"
    },
    {
      "vote_count": 313,
      "id": 280217,
      "video": false,
      "vote_average": 6.8,
      "title": "The Lego Movie 2: The Second Part",
      "popularity": 52.997,
      "poster_path": "\/QTESAsBVZwjtGJNDP7utiGV37z.jpg",
      "original_language": "en",
      "original_title": "The Lego Movie 2: The Second Part",
      "genre_ids": [
        28,
        12,
        16,
        35,
        10751,
        878,
        14
      ],
      "backdrop_path": "\/8kPozGb4BDrcWBSsGPrkULG2tP9.jpg",
      "adult": false,
      "overview": "It's been five years since everything was awesome and the citizens are facing a huge new threat: LEGO DUPLO® invaders from outer space, wrecking everything faster than they can rebuild.",
      "release_date": "2019-01-26"
    },
    {
      "vote_count": 263,
      "id": 438650,
      "video": false,
      "vote_average": 5.2,
      "title": "Cold Pursuit",
      "popularity": 51.612,
      "poster_path": "\/hXgmWPd1SuujRZ4QnKLzrj79PAw.jpg",
      "original_language": "en",
      "original_title": "Cold Pursuit",
      "genre_ids": [
        53,
        28,
        18
      ],
      "backdrop_path": "\/7Wg6FOEvhduISlxSzSCutAl4lPq.jpg",
      "adult": false,
      "overview": "Nels Coxman's quiet life comes crashing down when his beloved son dies under mysterious circumstances. His search for the truth soon becomes a quest for revenge as he seeks coldblooded justice against a drug lord and his inner circle.",
      "release_date": "2019-02-07"
    },
    {
      "vote_count": 57,
      "id": 454294,
      "video": false,
      "vote_average": 6,
      "title": "The Kid Who Would Be King",
      "popularity": 49.792,
      "poster_path": "\/kBuvLX6zynQP0sjyqbXV4jNaZ4E.jpg",
      "original_language": "en",
      "original_title": "The Kid Who Would Be King",
      "genre_ids": [
        28,
        12,
        14,
        10751
      ],
      "backdrop_path": "\/jmbgxBd86MshzQQvv5laKvOKoMm.jpg",
      "adult": false,
      "overview": "Old-school magic meets the modern world when young Alex stumbles upon the mythical sword Excalibur. He soon unites his friends and enemies, and they become knights who join forces with the legendary wizard Merlin. Together, they must save mankind from the wicked enchantress Morgana and her army of supernatural warriors.",
      "release_date": "2019-01-16"
    },
    {
      "vote_count": 439,
      "id": 491418,
      "video": false,
      "vote_average": 7.5,
      "title": "Instant Family",
      "popularity": 48.82,
      "poster_path": "\/xYV1mODz99w7AjKDSQ7h2mzZhVe.jpg",
      "original_language": "en",
      "original_title": "Instant Family",
      "genre_ids": [
        35,
        18
      ],
      "backdrop_path": "\/lwICpzZudw8BZ0bODaHgRWCdioB.jpg",
      "adult": false,
      "overview": "When Pete and Ellie decide to start a family, they stumble into the world of foster care adoption. They hope to take in one small child but when they meet three siblings, including a rebellious 15 year old girl, they find themselves speeding from zero to three kids overnight.",
      "release_date": "2018-11-16"
    },
    {
      "vote_count": 14,
      "id": 458723,
      "video": false,
      "vote_average": 7.5,
      "title": "Us",
      "popularity": 47.391,
      "poster_path": "\/ux2dU1jQ2ACIMShzB3yP93Udpzc.jpg",
      "original_language": "en",
      "original_title": "Us",
      "genre_ids": [
        53,
        27
      ],
      "backdrop_path": "\/jNUCddkM1fjYcFIcEwFjc7s2H4V.jpg",
      "adult": false,
      "overview": "Husband and wife Gabe and Adelaide Wilson take their kids to their beach house expecting to unplug and unwind with friends. But as night descends, their serenity turns to tension and chaos when some shocking visitors arrive uninvited.",
      "release_date": "2019-03-14"
    },
    {
      "vote_count": 54,
      "id": 471507,
      "video": false,
      "vote_average": 6.4,
      "title": "Destroyer",
      "popularity": 43.551,
      "poster_path": "\/sHw9gTdo43nJL82py0oaROkXXNr.jpg",
      "original_language": "en",
      "original_title": "Destroyer",
      "genre_ids": [
        53,
        80,
        18,
        28
      ],
      "backdrop_path": "\/rURV5xPzt9ZxEXAc4OQmxchGyZ8.jpg",
      "adult": false,
      "overview": "Erin Bell is an LAPD detective who, as a young cop, was placed undercover with a gang in the California desert with tragic results. When the leader of that gang re-emerges many years later, she must work her way back through the remaining members and into her own history with them to finally reckon with the demons that destroyed her past.",
      "release_date": "2018-12-25"
    },
    {
      "vote_count": 804,
      "id": 429197,
      "video": false,
      "vote_average": 7.2,
      "title": "Vice",
      "popularity": 43.078,
      "poster_path": "\/e0NZxqQ4B8YZ6kRrZish2DPqtdi.jpg",
      "original_language": "en",
      "original_title": "Vice",
      "genre_ids": [
        18,
        36,
        35
      ],
      "backdrop_path": "\/fKevZWqdGPk8OyZJkvyt68ZHczY.jpg",
      "adult": false,
      "overview": "George W. Bush picks Dick Cheney, the CEO of Halliburton Co., to be his Republican running mate in the 2000 presidential election. No stranger to politics, Cheney's impressive résumé includes stints as White House chief of staff, House Minority Whip and defense secretary. When Bush wins by a narrow margin, Cheney begins to use his newfound power to help reshape the country and the world.",
      "release_date": "2018-12-25"
    },
    {
      "vote_count": 8,
      "id": 400157,
      "video": false,
      "vote_average": 6,
      "title": "Wonder Park",
      "popularity": 42.27,
      "poster_path": "\/elUcnFlkQnx8ucyCTCWIi6HRa3w.jpg",
      "original_language": "en",
      "original_title": "Wonder Park",
      "genre_ids": [
        35,
        16,
        12,
        10751,
        14
      ],
      "backdrop_path": "\/nJyAdKPnW15IAvC6sLBTE0lp6Dv.jpg",
      "adult": false,
      "overview": "The story of a magnificent amusement park where the imagination of a wildly creative girl named June comes alive.",
      "release_date": "2019-03-14"
    },
    {
      "vote_count": 8,
      "id": 287947,
      "video": false,
      "vote_average": 9.7,
      "title": "Shazam!",
      "popularity": 38.031,
      "poster_path": "\/xnopI5Xtky18MPhK40cZAGAOVeV.jpg",
      "original_language": "en",
      "original_title": "Shazam!",
      "genre_ids": [
        28,
        35,
        12,
        14
      ],
      "backdrop_path": "\/nmV9MdbzST4xv8WMHwhVgxkHHjM.jpg",
      "adult": false,
      "overview": "A boy is given the ability to become an adult superhero in times of need with a single magic word.",
      "release_date": "2019-03-23"
    },
    {
      "vote_count": 70,
      "id": 394741,
      "video": false,
      "vote_average": 7.1,
      "title": "Stan & Ollie",
      "popularity": 37.382,
      "poster_path": "\/7ypYkp97TQzXCdK19sNSxTfXFk3.jpg",
      "original_language": "en",
      "original_title": "Stan & Ollie",
      "genre_ids": [
        35,
        18
      ],
      "backdrop_path": "\/6oyC0KcZPx9aqA1WkXtkfA1txXU.jpg",
      "adult": false,
      "overview": "With their golden era long behind them, comedy duo Stan Laurel and Oliver Hardy embark on a variety hall tour of Britain and Ireland. Despite the pressures of a hectic schedule, and with the support of their wives Lucille and Ida – a formidable double act in their own right – the pair's love of performing, as well as for each other, endures as they secure their place in the hearts of their adoring public",
      "release_date": "2018-12-28"
    },
    {
      "vote_count": 11,
      "id": 527641,
      "video": false,
      "vote_average": 8.6,
      "title": "Five Feet Apart",
      "popularity": 36.909,
      "poster_path": "\/kreTuJBkUjVWePRfhHZuYfhNE1T.jpg",
      "original_language": "en",
      "original_title": "Five Feet Apart",
      "genre_ids": [
        10749,
        18
      ],
      "backdrop_path": "\/d7wa3VpUpKDQ7GG9EMw8zSJCFoI.jpg",
      "adult": false,
      "overview": "Seventeen-year-old Stella spends most of her time in the hospital as a cystic fibrosis patient. Her life is full of routines, boundaries and self-control -- all of which get put to the test when she meets Will, an impossibly charming teen who has the same illness.",
      "release_date": "2019-03-15"
    },
    {
      "vote_count": 408,
      "id": 457136,
      "video": false,
      "vote_average": 6.6,
      "title": "Mary Queen of Scots",
      "popularity": 34.231,
      "poster_path": "\/b5RMzLAyq5QW6GtN9sIeAEMLlBI.jpg",
      "original_language": "en",
      "original_title": "Mary Queen of Scots",
      "genre_ids": [
        18,
        36
      ],
      "backdrop_path": "\/iv5N169nQIzrS0pZ8MBEiemTtVt.jpg",
      "adult": false,
      "overview": "In 1561, Mary Stuart, widow of the King of France, returns to Scotland, reclaims her rightful throne and menaces the future of Queen Elizabeth I as ruler of England, because she has a legitimate claim to the English throne. Betrayals, rebellions, conspiracies and their own life choices imperil both Queens. They experience the bitter cost of power, until their tragic fate is finally fulfilled.",
      "release_date": "2018-12-07"
    },
    {
      "vote_count": 169,
      "id": 515042,
      "video": false,
      "vote_average": 8.1,
      "title": "Free Solo",
      "popularity": 33.826,
      "poster_path": "\/oQZ4T3638UIZS7JV1SLTdqPmezx.jpg",
      "original_language": "en",
      "original_title": "Free Solo",
      "genre_ids": [
        99
      ],
      "backdrop_path": "\/z2uuQasY4gQJ8VDAFki746JWeQJ.jpg",
      "adult": false,
      "overview": "Follow Alex Honnold as he attempts to become the first person to ever free solo climb Yosemite's 3,000 foot high El Capitan wall. With no ropes or safety gear, this would arguably be the greatest feat in rock climbing history.",
      "release_date": "2018-12-14"
    },
    {
      "vote_count": 5,
      "id": 329996,
      "video": false,
      "vote_average": 0,
      "title": "Dumbo",
      "popularity": 29.646,
      "poster_path": "\/ttN0czDnCpr64aj3ANGEf3DKE1L.jpg",
      "original_language": "en",
      "original_title": "Dumbo",
      "genre_ids": [
        12,
        10751,
        14
      ],
      "backdrop_path": "\/5tFt6iuGnKapHl5tw0X0cKcnuVo.jpg",
      "adult": false,
      "overview": "A young elephant, whose oversized ears enable him to fly, helps save a struggling circus, but when the circus plans a new venture, Dumbo and his friends discover dark secrets beneath its shiny veneer.",
      "release_date": "2019-03-27"
    },
    {
      "vote_count": 0,
      "id": 537531,
      "video": false,
      "vote_average": 0,
      "title": "M",
      "popularity": 26.863,
      "poster_path": "\/xa8zRYLkuvKFJlVzTqaUGGusWZ9.jpg",
      "original_language": "yi",
      "original_title": "M",
      "genre_ids": [
        99
      ],
      "backdrop_path": null,
      "adult": false,
      "overview": "M is a journey to the heart of Bnei Brak, world capital of the Haredim, the ultra-Orthodox Jews, “God-fearing” in Hebrew. This is where Menahem Lang grew up. He was known for his kindness, his commitment to Talmud school and especially his golden voice, which made him a renowned performer of liturgical chants. At the age of twenty, however, he broke with this pious life and moves to Tel Aviv, for the child with the bright smile was hiding a secret: for years, he was raped by members of the community that worshipped him.",
      "release_date": "2019-03-20"
    }
  ],
  "page": 1,
  "total_results": 335,
  "dates": {
    "maximum": "2019-04-11",
    "minimum": "2019-03-19"
  },
  "total_pages": 17
}
